EPM7128S-Dev-Board/test-programs/First/First/simulation/qsim/First.msim.vcd
$comment
	File created using the following command:
		vcd file First.msim.vcd -direction
$end
$date
	Sun Mar 23 17:30:00 2014
$end
$version
	ModelSim Version 10.1d
$end
$timescale
	1ps
$end
$scope module First_vlg_vec_tst $end
$var reg 1 ! A0 $end
$var reg 1 " A1 $end
$var reg 1 # A2 $end
$var reg 1 $ A3 $end
$var reg 1 % A4 $end
$var reg 1 & A5 $end
$var reg 1 ' A6 $end
$var reg 1 ( A7 $end
$var reg 1 ) Clock $end
$var reg 1 * LED_Drive1 $end
$var reg 1 + LED_Drive2 $end
$var reg 1 , Not_IORQ $end
$var reg 1 - Not_M1 $end
$var reg 1 . Not_WD $end
$var reg 1 / pin_name1 $end
$var reg 1 0 pin_name2 $end
$var reg 1 1 pin_name3 $end
$var reg 1 2 pin_name4 $end
$var wire 1 3 CK $end
$var wire 1 4 CKDiv2 $end
$var wire 1 5 CKDiv4 $end
$var wire 1 6 CKDiv8 $end
$var wire 1 7 CKDiv16 $end
$var wire 1 8 Div10 $end
$var wire 1 9 Div100 $end
$var wire 1 : Div1000 $end
$var wire 1 ; Div10000 $end
$var wire 1 < Div100000 $end
$var wire 1 = Div1000000 $end
$var wire 1 > LED_1 $end
$var wire 1 ? LED_1a $end
$var wire 1 @ LED_2 $end
$var wire 1 A LED_2b $end
$var wire 1 B Not_OUT0 $end
$var wire 1 C Not_PE8T11 $end
$var wire 1 D Seg_a $end
$var wire 1 E Seg_b $end
$var wire 1 F Seg_c $end
$var wire 1 G Seg_d $end
$var wire 1 H Seg_e $end
$var wire 1 I Seg_f $end
$var wire 1 J Seg_g $end
$var wire 1 K sampler $end
$scope module i1 $end
$var wire 1 L gnd $end
$var wire 1 M vcc $end
$var wire 1 N unknown $end
$var wire 1 O pin_name3~dataout $end
$var wire 1 P pin_name4~dataout $end
$var wire 1 Q pin_name2~dataout $end
$var wire 1 R D10~0_dataout $end
$var wire 1 S LED_Drive1~dataout $end
$var wire 1 T LED_Drive1~4_dataout $end
$var wire 1 U LED_Drive1~2_dataout $end
$var wire 1 V LED_Drive2~dataout $end
$var wire 1 W LED_Drive2~4_dataout $end
$var wire 1 X LED_Drive2~2_dataout $end
$var wire 1 Y pin_name1~dataout $end
$var wire 1 Z D9~5_dataout $end
$var wire 1 [ Clock~dataout $end
$var wire 1 \ inst35|21~dataout $end
$var wire 1 ] Clock~4_dataout $end
$var wire 1 ^ A3~dataout $end
$var wire 1 _ A7~dataout $end
$var wire 1 ` A5~dataout $end
$var wire 1 a A6~dataout $end
$var wire 1 b A4~dataout $end
$var wire 1 c A2~dataout $end
$var wire 1 d NAND2_1~3_dataout $end
$var wire 1 e A1~dataout $end
$var wire 1 f A0~dataout $end
$var wire 1 g Not_WD~dataout $end
$var wire 1 h Not_M1~dataout $end
$var wire 1 i Not_IORQ~dataout $end
$var wire 1 j inst~2_dataout $end
$var wire 1 k D16~3_dataout $end
$var wire 1 l D23~5_dataout $end
$var wire 1 m inst35|22~dataout $end
$var wire 1 n D5~5_dataout $end
$var wire 1 o D14~4_dataout $end
$var wire 1 p D20~9_dataout $end
$var wire 1 q inst35|23~dataout $end
$var wire 1 r inst35|24~dataout $end
$var wire 1 s inst1|sub|34~dataout $end
$var wire 1 t inst1|sub|35~dataout $end
$var wire 1 u inst1|sub|36~dataout $end
$var wire 1 v inst1|sub|37~dataout $end
$var wire 1 w inst3|sub|34~dataout $end
$var wire 1 x inst3|sub|35~dataout $end
$var wire 1 y inst3|sub|36~dataout $end
$var wire 1 z inst3|sub|37~dataout $end
$var wire 1 { inst11|sub|34~dataout $end
$var wire 1 | inst11|sub|35~dataout $end
$var wire 1 } inst11|sub|36~dataout $end
$var wire 1 ~ inst11|sub|37~dataout $end
$var wire 1 !! inst21|sub|34~dataout $end
$var wire 1 "! inst21|sub|35~dataout $end
$var wire 1 #! inst21|sub|36~dataout $end
$var wire 1 $! inst21|sub|37~dataout $end
$var wire 1 %! inst22|sub|34~dataout $end
$var wire 1 &! inst22|sub|35~dataout $end
$var wire 1 '! inst22|sub|36~dataout $end
$var wire 1 (! inst22|sub|37~dataout $end
$var wire 1 )! inst20|sub|34~dataout $end
$var wire 1 *! inst20|sub|35~dataout $end
$var wire 1 +! inst20|sub|36~dataout $end
$var wire 1 ,! inst20|sub|37~dataout $end
$upscope $end
$upscope $end
$enddefinitions $end
#0
$dumpvars
x!
x"
x#
x$
x%
x&
x'
x(
x)
1*
0+
x,
x-
x.
1/
00
11
12
03
04
05
06
07
08
09
0:
0;
0<
0=
0>
1?
1@
0A
1B
1C
1D
1E
1F
1G
0H
0I
1J
xK
0L
1M
xN
1O
1P
0Q
1R
1S
0T
1U
0V
0W
1X
1Y
1Z
x[
0\
0]
x^
x_
x`
xa
xb
xc
1d
xe
xf
xg
xh
xi
1j
0k
1l
0m
1n
1o
0p
0q
0r
0s
0t
0u
0v
0w
0x
0y
0z
0{
0|
0}
0~
0!!
0"!
0#!
0$!
0%!
0&!
0'!
0(!
0)!
0*!
0+!
0,!
$end
#1000000
01
0/
0O
0Y
0K
0o
0n
0l
0G
0D
0J
#2000000
11
1O
1K
1o
1n
1l
1G
1D
1J
#3000000
10
1/
1Q
1Y
0K
0l
0o
0J
0G
#4000000
02
00
0/
0P
0Q
0Y
1K
1l
1o
1k
0R
1J
1G
1H
0F
#5000000
01
12
1/
0O
1P
1Y
0K
0k
1R
1p
0H
1F
1I
#6000000
11
02
1O
0P
1K
1k
0R
1H
0F
#7000000
10
0/
01
12
1Q
0Y
0O
1P
0K
0o
0k
0Z
1R
0G
0H
0E
1F
#8000000
00
02
0Q
0P
1K
0l
1Z
1k
1o
0J
1E
1H
1G
#9000000
11
12
1O
1P
0K
1l
0k
0p
1J
0H
0I
#10000000
02
0P
1K
0R
1k
0F
1H
#11000000
1/
01
1Y
0O
0K
1p
1R
1I
1F
#12000000
12
0/
1P
0Y
1K
0n
0p
0o
0l
0k
0D
0I
0G
0J
0H
#13000000
10
11
1/
1Q
1O
1Y
0K
1n
1D
#15000000
01
0/
0O
0Y
1K
1l
0Z
1p
1J
0E
1I
#16000000
1/
1Y
0K
1o
1G
#17000000
02
0P
1K
0n
1Z
1k
0D
1E
1H
#18000000
0/
0Y
0K
0o
0k
0G
0H
#19000000
11
1/
1O
1Y
1K
1o
1n
1k
1G
1D
1H
#20000000
12
01
0/
1P
0O
0Y
0K
0o
0k
0Z
0G
0H
0E
#21000000
00
02
0Q
0P
1K
0l
1Z
1k
1o
0J
1E
1H
1G
#22000000
11
12
1O
1P
0K
1l
0k
0p
1J
0H
0I
#23000000
02
0P
1K
0R
1k
0F
1H
#24000000
1/
10
01
1Y
1Q
0O
0K
1p
0n
1R
1I
0D
1F
#26000000
00
0Q
1K
1n
1D
#27000000
12
1P
0K
0k
0H
#28000000
0/
11
02
0Y
1O
0P
1K
0p
1k
0R
0I
1H
0F
#29000000
1/
12
1Y
1P
0K
0k
1R
0H
1F
#30000000
0/
0Y
1K
#31000000
01
02
0O
0P
0K
0l
1k
1p
0J
1H
1I
#32000000
10
11
12
1Q
1O
1P
1K
0p
0o
0k
0Z
0I
0G
0H
0E
#33000000
1/
00
1Y
0Q
0K
1o
1l
1Z
1G
1J
1E
#34000000
01
0O
1K
1p
1I
#35000000
0/
10
0Y
1Q
0K
0o
0Z
0G
0E
#36000000
00
0Q
1K
0p
0n
0l
1Z
0I
0D
0J
1E
#37000000
11
1/
1O
1Y
0K
1o
1n
1l
1G
1D
1J
#38000000
02
10
01
0/
0P
1Q
0O
0Y
1K
0n
1p
0o
0D
1I
0G
#39000000
11
1/
1O
1Y
0K
1o
1n
1k
1G
1D
1H
#40000000
00
0Q
1K
0R
0F
#41000000
12
01
10
1P
0O
1Q
0K
0k
0Z
1R
0H
0E
1F
#42000000
00
0Q
1K
1Z
1E
#43000000
02
11
0P
1O
0K
1k
0R
1H
0F
#44000000
12
1P
1K
1R
0k
0p
1F
0H
0I
#45000000
0/
02
0Y
0P
0K
1k
0R
1H
0F
#46000000
10
1Q
1K
1p
1R
0Z
1I
1F
0E
#47000000
01
1/
12
00
0O
1Y
1P
0Q
0K
0k
1Z
0H
1E
#48000000
0/
10
0Y
1Q
1K
0o
0Z
0G
0E
#49000000
1/
00
1Y
0Q
0K
1o
1Z
1G
1E
#50000000
11
1O
1K
0p
0I
#52000000
0/
01
0Y
0O
0K
0o
0n
0l
0G
0D
0J
#53000000
1/
11
1Y
1O
1K
1o
1n
1l
1G
1D
1J
#54000000
02
0P
0K
0R
1k
1p
0F
1H
1I
#55000000
10
0/
1Q
0Y
1K
0Z
1R
0E
1F
#56000000
12
00
1/
1P
0Q
1Y
0K
0p
0k
1Z
0I
0H
1E
#57000000
01
0/
0O
0Y
1K
0o
0n
0l
0G
0D
0J
#58000000
10
11
1/
1Q
1O
1Y
0K
1n
1D
#59000000
02
01
0/
0P
0O
0Y
1K
0n
1l
1p
0D
1J
1I
#60000000
12
1P
0K
1n
0Z
1D
0E
#61000000
11
1/
02
1O
1Y
0P
1K
1o
1k
1Z
1G
1H
1E
#62000000
01
0/
12
0O
0Y
1P
0K
0o
0k
0Z
0G
0H
0E
#63000000
00
02
0Q
0P
1K
0l
1Z
1k
1o
0J
1E
1H
1G
#64000000
12
1P
0K
0n
0k
0o
0p
0D
0H
0G
0I
#65000000
11
02
1O
0P
1K
1o
1n
1l
1k
0R
1G
1D
1J
1H
0F
#66000000
10
01
12
1Q
0O
1P
0K
1p
0o
0k
0Z
1R
1I
0G
0H
0E
1F
#68000000
1/
00
11
1Y
0Q
1O
1K
0p
1o
1Z
0I
1G
1E
#69000000
02
10
01
0P
1Q
0O
0K
0n
1p
1k
0D
1I
1H
#70000000
0/
11
0Y
1O
1K
1n
0Z
1D
0E
#71000000
12
00
1P
0Q
0K
0p
1Z
0k
0I
1E
0H
#72000000
1/
01
10
1Y
0O
1Q
1K
1p
0Z
1I
0E
#73000000
02
0/
11
00
0P
0Y
1O
0Q
0K
0p
1k
1Z
0R
0I
1H
1E
0F
#74000000
12
1P
1K
1R
0k
1F
0H
#75000000
01
10
02
0O
1Q
0P
0K
0o
0n
1p
0G
0D
1I
#76000000
1/
11
12
1Y
1O
1P
1K
0p
1n
0l
0I
1D
0J
#77000000
00
0/
01
0Q
0Y
0O
0K
0n
0D
#78000000
10
1Q
1K
1p
1n
1l
0Z
1I
1D
1J
0E
#79000000
02
1/
0P
1Y
0K
0n
1o
1k
1Z
0D
1G
1H
1E
#80000000
00
12
0Q
1P
1K
1n
0k
1D
0H
#81000000
0/
10
02
0Y
1Q
0P
0K
0o
0n
0G
0D
#82000000
00
12
0Q
1P
1K
0p
0l
0I
0J
#83000000
10
1Q
0K
1p
1n
1l
0Z
1I
1D
1J
0E
#84000000
11
1/
00
1O
1Y
0Q
1K
1o
1Z
0p
1G
1E
0I
#85000000
01
10
0O
1Q
0K
0Z
1p
0E
1I
#86000000
02
11
0P
1O
1K
1k
1Z
1H
1E
#87000000
00
12
01
0Q
1P
0O
0K
0k
0H
#88000000
10
11
1Q
1O
1K
0p
0l
0o
0I
0J
0G
#89000000
0/
00
0Y
0Q
0K
1o
1l
1G
1J
#90000000
02
10
0P
1Q
1K
1p
0Z
1k
1I
0E
1H
#91000000
01
1/
0O
1Y
0K
0n
1Z
0D
1E
#92000000
00
0Q
1K
1n
1D
#93000000
11
1O
0K
0R
0F
#94000000
12
10
01
1P
1Q
0O
1K
0k
0Z
1R
0H
0E
1F
#95000000
0/
02
00
11
0Y
0P
0Q
1O
0K
0p
1k
1Z
0R
0I
1H
1E
0F
#96000000
1/
12
10
01
1Y
1P
1Q
0O
1K
1p
0k
0Z
1R
1I
0H
0E
1F
#97000000
0/
00
0Y
0Q
0K
0p
0o
0n
0l
1Z
0I
0G
0D
0J
1E
#98000000
02
0P
1K
1n
1k
1o
1p
1D
1H
1G
1I
#99000000
11
10
1O
1Q
0K
1l
0Z
1J
0E
